<svg xmlns="http://www.w3.org/2000/svg" xmlns:xlink="http://www.w3.org/1999/xlink" width="22" height="22" viewBox="0 0 22 22">
  <defs>
    <clipPath id="clip-path">
      <rect id="Rectangle_1059" data-name="Rectangle 1059" width="22" height="22" transform="translate(390 289)" fill="#fff" stroke="#707070" stroke-width="1"/>
    </clipPath>
  </defs>
  <g id="back_arrow" transform="translate(-390 -289)" clip-path="url(#clip-path)">
    <path id="Path_2151" data-name="Path 2151" d="M6.295,137.695h0l5.249-5.392a.982.982,0,0,1,1.421,0,1.061,1.061,0,0,1,0,1.466l-3.524,3.62H23a1.037,1.037,0,0,1,0,2.074H9.437l3.524,3.62a1.061,1.061,0,0,1,0,1.466.983.983,0,0,1-1.421,0L6.3,139.164h0A1.062,1.062,0,0,1,6.295,137.695Z" transform="translate(384 162)" fill="#008fd5"/>
  </g>
</svg>
