<svg xmlns="http://www.w3.org/2000/svg" xmlns:xlink="http://www.w3.org/1999/xlink" width="116" height="128" viewBox="0 0 116 128">
  <defs>
    <linearGradient id="linear-gradient" x1="0.5" x2="0.5" y2="1" gradientUnits="objectBoundingBox">
      <stop offset="0" stop-color="#008fd5"/>
      <stop offset="1" stop-color="#40b9f3"/>
    </linearGradient>
    <filter id="Rectangle_14" x="51" y="63" width="65" height="65" filterUnits="userSpaceOnUse">
      <feOffset dy="5" input="SourceAlpha"/>
      <feGaussianBlur stdDeviation="5" result="blur"/>
      <feFlood flood-color="#26caff" flood-opacity="0.2"/>
      <feComposite operator="in" in2="blur"/>
      <feComposite in="SourceGraphic"/>
    </filter>
    <linearGradient id="linear-gradient-2" x1="0.5" x2="0.5" y2="1" gradientUnits="objectBoundingBox">
      <stop offset="0" stop-color="#f69c48"/>
      <stop offset="1" stop-color="#ffae64"/>
    </linearGradient>
    <filter id="Rectangle_15" x="0" y="0" width="76" height="80" filterUnits="userSpaceOnUse">
      <feOffset dy="5" input="SourceAlpha"/>
      <feGaussianBlur stdDeviation="5" result="blur-2"/>
      <feFlood flood-color="#f99e49" flood-opacity="0.2"/>
      <feComposite operator="in" in2="blur-2"/>
      <feComposite in="SourceGraphic"/>
    </filter>
  </defs>
  <g id="bg_square" transform="translate(15.357 10.246)" opacity="0.4">
    <g transform="matrix(1, 0, 0, 1, -15.36, -10.25)" filter="url(#Rectangle_14)">
      <rect id="Rectangle_14-2" data-name="Rectangle 14" width="35" height="35" rx="4" transform="translate(66 73)" fill="url(#linear-gradient)"/>
    </g>
    <g transform="matrix(1, 0, 0, 1, -15.36, -10.25)" filter="url(#Rectangle_15)">
      <rect id="Rectangle_15-2" data-name="Rectangle 15" width="46" height="50" rx="4" transform="translate(15 10)" fill="url(#linear-gradient-2)"/>
    </g>
  </g>
</svg>
