<svg xmlns="http://www.w3.org/2000/svg" width="120" height="120" viewBox="0 0 120 120">
  <g id="profile_place_holder" transform="translate(-323 -423)">
    <rect id="photo-1541701494587-cb58502866ab" width="120" height="120" rx="60" transform="translate(323 423)" fill="#e2e2e2"/>
    <path id="Path_3482" data-name="Path 3482" d="M38.533,29.183a22.485,22.485,0,0,0-8.577-5.38,13.049,13.049,0,1,0-14.767,0A22.608,22.608,0,0,0,0,45.144H3.527a19.045,19.045,0,1,1,38.09,0h3.527A22.425,22.425,0,0,0,38.533,29.183ZM22.572,22.572a9.523,9.523,0,1,1,9.523-9.523A9.533,9.533,0,0,1,22.572,22.572Z" transform="translate(360.428 460.429)" fill="#b2b2b2"/>
  </g>
</svg>
