<svg xmlns="http://www.w3.org/2000/svg" width="120" height="120" viewBox="0 0 120 120">
  <g id="share_link_icon" transform="translate(-153 -184)">
    <g id="Group_11939" data-name="Group 11939" transform="translate(-0.012 2.543)">
      <path id="Path_3475" data-name="Path 3475" d="M23.093,19.04l-4.11,4.11a2.955,2.955,0,0,1,.928,2.154,2.745,2.745,0,0,1-.928,2.088L8.642,37.864a2.512,2.512,0,0,1-1.989.928A3.376,3.376,0,0,1,4.4,37.864l-8.286-8.286a2.92,2.92,0,0,1-.928-2.121A2.805,2.805,0,0,1-3.952,25.4L6.455,14.93A2.512,2.512,0,0,1,8.443,14a3.267,3.267,0,0,1,2.187.862l4.176-4.11L12.686,8.633A5.606,5.606,0,0,0,8.51,6.876,6.193,6.193,0,0,0,4.267,8.633L-10.249,23.348a5.574,5.574,0,0,0-1.69,4.176,6.034,6.034,0,0,0,1.757,4.242L2.411,44.228a5.581,5.581,0,0,0,4.11,1.657,6.138,6.138,0,0,0,4.309-1.723L25.346,29.446a5.97,5.97,0,0,0,1.69-4.275,5.447,5.447,0,0,0-1.823-4.077ZM52.258-6.281,39.664-18.743a5.581,5.581,0,0,0-4.11-1.657,6.138,6.138,0,0,0-4.309,1.723L16.729-3.961A5.8,5.8,0,0,0,15.072.215a5.583,5.583,0,0,0,1.79,4.176l2.121,2.055,4.11-4.11A3.305,3.305,0,0,1,22.165.148a2.851,2.851,0,0,1,.928-2.055L33.433-12.38a2.581,2.581,0,0,1,2.055-.928,2.992,2.992,0,0,1,2.187.928l8.286,8.286a2.92,2.92,0,0,1,.928,2.121A2.805,2.805,0,0,1,46.027.082L35.621,10.555a2.6,2.6,0,0,1-2.055.895,3.316,3.316,0,0,1-2.121-.829l-4.176,4.11,2.121,2.121a5.606,5.606,0,0,0,4.176,1.757,6.193,6.193,0,0,0,4.242-1.757L52.391,2.137a5.8,5.8,0,0,0,1.657-4.176A6.22,6.22,0,0,0,52.258-6.281ZM9.835,21.161a2.805,2.805,0,0,0,.862,2.055,2.961,2.961,0,0,0,4.176,0L31.511,6.379a2.732,2.732,0,0,0,.729-2.022,2.872,2.872,0,0,0-.829-2.121,2.831,2.831,0,0,0-2.088-.829,2.883,2.883,0,0,0-2.121.862L10.631,19.04A3.011,3.011,0,0,0,9.835,21.161Z" transform="translate(191.952 228.857)"/>
      <path id="Path_3476" data-name="Path 3476" d="M-4.056,7.249A2.805,2.805,0,0,0-3.194,9.3a2.844,2.844,0,0,0,2.088.862A2.844,2.844,0,0,0,.982,9.3L17.62-7.533a2.732,2.732,0,0,0,.729-2.022,2.872,2.872,0,0,0-.829-2.121,2.831,2.831,0,0,0-2.088-.829,2.883,2.883,0,0,0-2.121.862L-3.261,5.128A3.011,3.011,0,0,0-4.056,7.249Z" transform="translate(205.844 242.769)" fill="#21d59f"/>
    </g>
    <g id="Ellipse_122" data-name="Ellipse 122" transform="translate(153 184)" fill="none" stroke="#21d59f" stroke-width="4">
      <circle cx="60" cy="60" r="60" stroke="none"/>
      <circle cx="60" cy="60" r="58" fill="none"/>
    </g>
  </g>
</svg>
